4293594584475656
4327751895751520
4292769615982688
4292782348857360
4503892140441666
4504979386750038
4575171902309125
4573968372617264
4573994211889232
4573969680596056
4575073257198678
4574243317643264
4785080798089228
4785075730801208
4785363613532208
4856646945765440
5075523382304784
5066824461867105
5066824461867104
5138048136249602
379606797406224
5352710803685376
5348325373001729
5348325373001728
5348301532692592
5348301451061322
5431596071190622
5423070542057560
5418673956348952
5704572075704832
5702343307838074
5910984224948248
5981631624776776
6193850122596100
6192758999179268
6193833544592708
6194924865222696
6262824140099138
6280771467952196
6264207155671048
6509349359928324
6473924537761792
1615877424
6544293281939456
6545762158116864
6548980091588640
564484858781760
634448273997824
7037359749355600
7037158460382252
7041557110915156
7113102980284480
7108618901002328
7319745365303328
7353895970955313
7353895970955312
7318625349430880
7318634210657888
7388864536789056
7389882196426752
7388757787418744
633354820075532
7389878994033715
7599834068550525
7600129314062644
7602405814648928
7601221410178592
7600126295040065
7600126295040064
7670194195595320
7882399404353286
7882417167682646
7954168938520576
7953116592234544
8162801121444608
8164115447047176
8162775404535824
8163054573919300
8164201395017216
8233213203144228
8444361817202752
8444546461729856
8515717579358332
8727078809139208
9007199255810096
9007200532703248
9015235826484786
9007474268461362
9077567999987760
9359322199382032
9368132604420096
9571553662468096
9641647528738816
9644951634253376
9856306003322912
9852106229233736
9861899592353580
9922272310595664
10133142182821952
10140812927521896
10133375383263288
10203815949648387
10423404730515456
10414579525378056
10415957707676992
10417049114275840
10485217767719465
10696323998109760
10784371095322692
10767801945948160
10766723883925558
10768961576632440
10766723883925622
10768961576648760
10768961576648824
10766707102601297
10766707102601296
10977525252243233
10979793181806336
10977800047981324
11048167716159577
11048167716159576
11048251030255704
11329746978222144
11540488003780688
11610843429489688
11611124025786464
11615637050777632
11830762714251276
11822088228061296
11893693234755360
12103497556060160
12103699011799572
12103699034360880
12182899818241570
12390676796818500
12455559782486113
12455559782486112
12667569026629696
12667488368066640
12668574187411472
12701731202553174
12666678894854452
1196286774607936
12947863693697041
12947863693697040
12965485191713587
12949254961517861
12949241643403360
13300059086269258
13510988296880128
13513414638829576
13511142754238560
13794752612800580
13862848767737953
13862848767737952
13863170925418560
14074092634243865
14144130565277784
14144186504708889
1407376041734168
1407380271288408
14711482897932610
14924974030093058
14988715030497352
15199851276927072
1409918984809504
15270314583488540
15287970722693188
15481411500785752
15481639120487428
15551732986758148
15552618823680001
15552618823680000
15551854163797880
1477743769815040
15552007864665092
15763981681578064
15832967444191264
15832969572276296
16044148085239888
16044104884445248
16114653112848448
16115547903885312
16114533835749440
16114718388256881
16114718388256880
16325584103817328
16326065125393927
16396034297036864
16677673438961728
16888546971446816
16888516927557697
16888516927557696
16891118571507760
16959988404938004
16958885634140676
1702259392272440
1692381067374592
17170102501785665
17170102501785664
17174578942265356
17170469144821824
17170391432957000
17245844199727112
17241463381648660
17242662735463258
17451874294916196
17451728826926592
17527319176437768
17521827534616656
17732950645555265
17732950645555264
17733250627797538
17808794153148424
17803339660021777
17803339660021776
1741987468492868
1689124846063200
18014451830235164
18014674531650560
1690238263311145
18084827520582996
18085043531352068
18366552274370657
18366552274370656
18578449861384000
18579832502751296
18611709648525328
18608423964990498
1761560674069568
18649165739393064
18942697041642246
18929580178228228
19140302718650408
19141914803056736
19421774551216152
19439641972707408
19492211131483714
19492160313251904
19705534135863042
19704357565375588
19710206323986496
19993576990834688
19989466338299969
19989466338299968
20055247179219040
20281596268579840
20268691119677552
20336915111232003
20555387065816104
20548916378355486
20547962104780036
20550204914663521
20550204914663520
20618042051401825
20618042051401824
20618042703628312
20619516010634308
20618330916266081
20618330916266080
20622733563282436
20618318469808160
20829148415533177
20829428797085284
20899810510112840
21180996330201120
2041801707234340
21190064079373069
21183475566053440
21183535714926648
21181298022219830
21183535714926712
21183535714943032
21392253725851744
88270571571200
21466083376248928
21673578038583868
21673913958281217
21673913958281216
21746142454757416
21955079641511520
22025701540430912
2045436572995649
2045436572995648
22307207067494424
22517999294821490
22596064654278744
22800865828018256
23152559573565440
23154767341577505
23151634763087936
2252074691598412
23153803778588784
23434992446099521
23434992446099520
23433268773808140
23644277141946377
23644277141946376
23644277347213313
23714494907678744
23714680534990961
23926614473735180
2326686863458304
23996051139612704
23996051136475169
23996051136475168
2325471696404544
24207299142438658
24295169977434180
24278592271958080
2322170089857041
2322170089857040
24488599193923697
24488599193923696
24558697546055778
24774213211389952
25051272931979264
25051480230203457
25051480230203456
25051788497403969
25051788497403968
25123020531318848
25126368099911460
25127501489766464
25333091791536129
25333091791536128
25403185843879940
25403393338535968
25403410183381088
25684713097156692
25684885096169538
25897906717067385
25897906717067384
26177233098403840
26177374903076928
26177301756526657
26177301756526656
26177173911052800
26178333549217300
26177460632027232
26459928284255508
26458833067469860
26460159914029105
2533619730112603
26810633820045344
26810775572079640
27021872783766278
27023114982412360
2603644608323672
27092109955725673
27312040838456416
2603713333039200
27656230796802048
27655055012659296
27655261557707302
27866108864302080
27936392519624246
27936675333684328
28147499400185944
28218072842125312
2814749906051193
28428972685927015
28428999659094081
28428999659094080
28499544446892033
28710453026758752
28710723611807755
28780821737912416
2815041825343568
28798769604804676
28992072946287680
2815024918171746
29275940739377152
2817362555046008
29625448050741264
2885118650228857
29906858550493249
29907834695863296
29907061239136075
30118098125467648
30118321261142081
30118321261142080
2885274778555400
30188393838688260
30190684348350588
30188480799727648
30400419651395680
30469932785365064
30681258152183888
2885557761737509
30751167347510800
2898696117160048
30962676951892542
31033020447129640
3098423907588176
31244003636049496
31314457595751242
31600034248151073
31806677133033569
31806677133033568
31806947249640504
31877569434900544
32088217339560729
32088495354830928
32091729754587201
32091729754587200
32090689970241600
32088526784315488
32932573500154193
32932582248677376
32933113978583313
33003079012343888
33284713092970524
33302369232175172
33496037629969412
33495798317580384
33566131496240132
33566252673279864
33566406374147076
3166903872016449
3166903872016448
33777140299419490
34058679484944449
34058679484944448
34058731910166592
34058679452851232
34129013798828104
34129116897738865
34129116897738864
34340013315473504
34340437859702392
34340227592175616
34621697018314784
34621698625789984
34692071948443712
34902915298689031
34902897920602160
34908400057868360
34904019239789908
35184424754364424
35189875034579016
35184681870690304
35184789942438984
35184682401808708
35254823964661768
35257061244945242
35465950414198852
35465882366985030
35465899683021888
35465852436348992
35471350011289672
3448171649197638
35536242251424776
35536221245816928
3729553111393108
3732070831499352
3729827988766721
3729827988766720
3946151543899420
3943364362782978
3943129485345608
3940960411074672
4011032548745280
4011294340940864
4222404936272168
