9359237244848128
9359047796197888
10133374078310400
10488262963110144
10484998902385152
10485223954600960
10766423333535744
938186012360704
10977932856008704
11611144613089024
11857288687992832
11822238235361280
12455267959340032
12737027641466880
1214238817075200
13581579947344128
14144462776174848
14355499100164096
14711775756812544
14918196448481536
15200890021740544
15199794779131904
16054141079539712
16325764070327552
16328058520955904
16398400998812672
16677392928880640
16677410726157056
16677415545737216
16959150816126208
16959212857359616
1689068941625344
1688854178851840
18882215777665024
19149452439866368
19493578004775168
19493578004774912
19703467451107328
19703252688333824
20266474647855104
20547674914750976
20618321284843520
20622749600841728
21673642999939840
21673862097814528
21743946245881856
22025554907758592
22027660260556800
22236806679111680
22518360392089600
22588540768223232
22799491489160192
23081480671463424
23154625034284032
23432947375824896
23433067243247616
23644380120248320
23644173346818048
24207174670483456
88279031504896
24558972154959872
24771091877081088
25061340334280704
25121921548960000
25121921548959744
25121985543544832
25121921940144896
25333109285715968
25403512026312704
26458772940135424
2533654229688320
26740128177330176
27093140512462848
27096451600889856
27373787098268672
27866028067258368
28147568005502976
28217867661093632
28222386320403456
28218279541635072
28782204049948672
28992206238928896
29836400434114560
29838821536517120
29907889087053824
29908095194890240
29907129265496576
30399572500021248
30469907318443520
30469666837636608
31034935926000640
31595649753434112
31595567344807936
31595978456826112
31809150581490176
32158861285656832
32369627791884288
32370015044903168
32370015044902912
32651373922771456
32721638720036864
32726174266294528
32932607979159552
32932899835609088
3166881390264576
33284416152154112
34412799508294656
34691817471477760
34973549325608192
34973611366841600
35748421826519296
35748421826519040
35747606270067712
35747619485582080
3941779824855040
4787558742509568
5911250733132288
5981365273116672
563054664773632
6262844039366656
6475360896024576
6544735842361344
7039460262821888
686131427963136
7389054691733504
7600099922477312
7600103569098752
7951704332976128
8163883752101888
656684412395776
